Final Project
…
# Selecting the required columns and creating a new grouping variable.

df_fac <- Final_df %>% 
  select(c(1,2,3,7)) %>% 
  mutate(Group = case_when(`Per Pupil Expenditure` == 13661 | `Per Pupil Expenditure` < 16705 ~ 1,
                            `Per Pupil Expenditure` == 16705 | `Per Pupil Expenditure` < 19120 ~ 2,
                            `Per Pupil Expenditure` == 19120 | `Per Pupil Expenditure` < 20858 ~ 3,
                            `Per Pupil Expenditure` == 20858 | `Per Pupil Expenditure` <= 35114 ~ 4
    
  ))

df_fac # Checking the Sanity of the new data set.

# A tibble: 269 × 5
   `District Name`  `District Code` Per Pupil Expenditur…¹ `Avg SAT Score` Group
   <chr>            <chr>                            <dbl>           <dbl> <dbl>
 1 Abby Kelley Fos… 04450000                        16854.             560     2
 2 Abington         00010000                        16143.             550     1
 3 Acton-Boxborough 06000000                        18915.             666     2
 4 Advanced Math a… 04300000                        16675.             643     1
 5 Agawam           00050000                        19690.             571     3
 6 Amesbury         00070000                        19884.             583     3
 7 Amherst-Pelham   06050000                        24555.             662     4
 8 Andover          00090000                        20941.             609     4
 9 Arlington        00100000                        17934.             620     2
10 Ashburnham-West… 06100000                        14920.             600     1
# ℹ 259 more rows
# ℹ abbreviated name: ¹​`Per Pupil Expenditure`
…
